<svg xmlns="http://www.w3.org/2000/svg" viewBox="0 0 140.944 123.783">
  <defs>
    <style>
      .cls-1, .cls-2 {
        fill: none;
      }

      .cls-1 {
        stroke: #fff;
        stroke-linecap: round;
        stroke-linejoin: round;
        stroke-miterlimit: 10;
        stroke-width: 6px;
      }

      .cls-3, .cls-4 {
        stroke: none;
      }

      .cls-4 {
        fill: #fff;
      }
    </style>
  </defs>
  <g id="Group_2914" data-name="Group 2914" transform="translate(201.891 -13473.625)">
    <g id="Symbol_1391_4" data-name="Symbol 1391 – 4">
      <g id="car_1_" transform="translate(-198.885 13476.625)">
        <g id="auto_2_" transform="translate(0 0)">
          <path id="Path_7026_2_" class="cls-1" d="M120.255,55.277v-5.92A18.564,18.564,0,0,0,118.817,42l-2.047-5.311h9.018a2.129,2.129,0,0,0,2.047-2.268V34.2l-1.66-6.528a3.963,3.963,0,0,0-3.873-3.1H112.9L105.1,8.8A12.3,12.3,0,0,0,94.032,2H36.052A12.416,12.416,0,0,0,24.987,8.75L17.242,24.572H7.615a3.918,3.918,0,0,0-3.873,3.1l-1.66,6.75a2.171,2.171,0,0,0,1.826,2.434h9.239L11.1,42.165a22.578,22.578,0,0,0-1.438,7.358V69.606A25.036,25.036,0,0,0,10.05,73.7l1.66,7.8V94.225a1.964,1.964,0,0,0,1.826,2.047H34.226a1.964,1.964,0,0,0,2.047-1.826V83.99H28.085" transform="translate(-2.062 -2)"/>
          <line id="Line_1189_2_" class="cls-1" x2="28.658" transform="translate(32.165 81.935)"/>
          <path id="Path_7027_2_" class="cls-1" d="M38,93.654H55.206l-3.1-5.754" transform="translate(-18.117 -40.377)"/>
          <line id="Line_1190_2_" class="cls-1" x2="14.329" transform="translate(46.493 67.606)"/>
          <line id="Line_1191_2_" class="cls-1" x2="63.512" transform="translate(32.165 28.713)"/>
        </g>
      </g>
      <g id="Union_76" data-name="Union 76" class="cls-2" transform="translate(-130.07 13528.284)">
        <path class="cls-3" d="M25.346,59.907V43.779H9.217a9.216,9.216,0,1,1,0-18.433H25.346V9.217a9.216,9.216,0,1,1,18.433,0V25.346H59.908a9.216,9.216,0,0,1,0,18.433H43.779V59.907a9.216,9.216,0,1,1-18.433,0Z"/>
        <path class="cls-4" d="M 34.56180191040039 63.12360000610352 C 36.33561706542969 63.12360000610352 37.77870941162109 61.68051147460938 37.77870941162109 59.90669250488281 L 37.77870941162109 43.77870941162109 L 37.77870941162109 37.77870941162109 L 43.77870941162109 37.77870941162109 L 59.90760040283203 37.77870941162109 C 61.680908203125 37.77870941162109 63.12360000610352 36.33561706542969 63.12360000610352 34.56180191040039 C 63.12360000610352 32.78849411010742 61.680908203125 31.34580230712891 59.90760040283203 31.34580230712891 L 43.77870941162109 31.34580230712891 L 37.77870941162109 31.34580230712891 L 37.77870941162109 25.34580230712891 L 37.77870941162109 9.216894149780273 C 37.77870941162109 7.443094253540039 36.33561706542969 6.000001907348633 34.56180191040039 6.000001907348633 C 32.78849411010742 6.000001907348633 31.34580230712891 7.443094253540039 31.34580230712891 9.216894149780273 L 31.34580230712891 25.34580230712891 L 31.34580230712891 31.34580230712891 L 25.34580230712891 31.34580230712891 L 9.216894149780273 31.34580230712891 C 7.443094253540039 31.34580230712891 6.000001907348633 32.78849411010742 6.000001907348633 34.56180191040039 C 6.000001907348633 36.33561706542969 7.443094253540039 37.77870941162109 9.216894149780273 37.77870941162109 L 25.34580230712891 37.77870941162109 L 31.34580230712891 37.77870941162109 L 31.34580230712891 43.77870941162109 L 31.34580230712891 59.90669250488281 C 31.34580230712891 61.68051147460938 32.78849411010742 63.12360000610352 34.56180191040039 63.12360000610352 M 34.56180191040039 69.12360382080078 C 29.47140121459961 69.12360382080078 25.34580230712891 64.99709320068359 25.34580230712891 59.90669250488281 L 25.34580230712891 43.77870941162109 L 9.216894149780273 43.77870941162109 C 4.126494407653809 43.77870941162109 1.910400442284299e-06 39.65220260620117 1.910400442284299e-06 34.56180191040039 C 1.910400442284299e-06 29.47140121459961 4.126494407653809 25.34580230712891 9.216894149780273 25.34580230712891 L 25.34580230712891 25.34580230712891 L 25.34580230712891 9.216894149780273 C 25.34580230712891 4.126494407653809 29.47140121459961 1.910400442284299e-06 34.56180191040039 1.910400442284299e-06 C 39.65220260620117 1.910400442284299e-06 43.77870941162109 4.126494407653809 43.77870941162109 9.216894149780273 L 43.77870941162109 25.34580230712891 L 59.90760040283203 25.34580230712891 C 64.99709320068359 25.34580230712891 69.12360382080078 29.47140121459961 69.12360382080078 34.56180191040039 C 69.12360382080078 39.65220260620117 64.99709320068359 43.77870941162109 59.90760040283203 43.77870941162109 L 43.77870941162109 43.77870941162109 L 43.77870941162109 59.90669250488281 C 43.77870941162109 64.99709320068359 39.65220260620117 69.12360382080078 34.56180191040039 69.12360382080078 Z"/>
      </g>
    </g>
  </g>
</svg>
