<svg xmlns="http://www.w3.org/2000/svg" viewBox="0 0 71.123 53.841">
  <defs>
    <style>
      .cls-1 {
        fill: none;
        stroke: #fff;
        stroke-linecap: round;
        stroke-linejoin: round;
        stroke-miterlimit: 10;
        stroke-width: 2px;
      }
    </style>
  </defs>
  <g id="Group_2897" data-name="Group 2897" transform="translate(-86.996 -1236)">
    <g id="car_4_" transform="translate(88.194 1237.199)">
      <g id="auto_4_">
        <path id="Path_7028" data-name="Path 7028" class="cls-1" d="M65.84,30.271V27.018a10.348,10.348,0,0,0-.785-4.039l-1.122-2.917H68.87a1.184,1.184,0,0,0,1.122-1.346l-.9-3.59a2.162,2.162,0,0,0-2.132-1.683H61.8L57.538,4.8a6.783,6.783,0,0,0-6.059-3.7H19.727a6.783,6.783,0,0,0-6.059,3.7L9.4,13.442H4.131A2.162,2.162,0,0,0,2,15.125l-.9,3.59a1.123,1.123,0,0,0,1.122,1.346H7.161L6.039,22.979a11.759,11.759,0,0,0-.785,4.039v11a13.812,13.812,0,0,0,.224,2.244l.9,4.264v6.956A1.06,1.06,0,0,0,7.5,52.6h11.22a1.06,1.06,0,0,0,1.122-1.122v-5.61H15.351" transform="translate(-1.085 -1.1)"/>
        <line id="Line_1197" data-name="Line 1197" class="cls-1" x2="36.689" transform="translate(17.632 44.879)"/>
        <path id="Path_7029" data-name="Path 7029" class="cls-1" d="M10.8,27.442h9.425L18.542,24.3" transform="translate(0.1 1.73)"/>
        <line id="Line_1198" data-name="Line 1198" class="cls-1" x2="19.747" transform="translate(25.486 37.025)"/>
        <line id="Line_1199" data-name="Line 1199" class="cls-1" x2="34.782" transform="translate(17.632 15.708)"/>
      </g>
    </g>
    <g id="car_3_" transform="translate(88 1237)">
      <g id="auto_1_">
        <path id="Path_7030" data-name="Path 7030" class="cls-1" d="M5.171,30.3V27.033a10.394,10.394,0,0,1,.789-4.057l1.127-2.93H2.129A1.189,1.189,0,0,1,1,18.693l.9-3.606A2.172,2.172,0,0,1,4.044,13.4H9.229l4.283-8.678A6.813,6.813,0,0,1,19.6,1H51.491a6.813,6.813,0,0,1,6.086,3.719L61.859,13.4h5.184a2.172,2.172,0,0,1,2.141,1.69l.9,3.606a1.128,1.128,0,0,1-1.127,1.352H64l1.127,2.93a11.812,11.812,0,0,1,.789,4.057V38.19a13.874,13.874,0,0,1-.225,2.254l-.9,4.282v6.987a1.065,1.065,0,0,1-1.127,1.127H52.392a1.065,1.065,0,0,1-1.127-1.127V46.079" transform="translate(-0.987 -1)"/>
        <path id="Path_7031" data-name="Path 7031" class="cls-1" d="M53.854,27.156H44.5L46.078,24" transform="translate(4.538 1.92)"/>
      </g>
    </g>
  </g>
</svg>
