<svg xmlns="http://www.w3.org/2000/svg" viewBox="0 0 174.335 145.754">
  <defs>
    <style>
      .cls-1 {
        fill: none;
        stroke: #ffc807;
        stroke-linecap: round;
        stroke-linejoin: round;
        stroke-miterlimit: 10;
        stroke-width: 5px;
      }

      .cls-2 {
        fill: #ffc807;
      }
    </style>
  </defs>
  <g id="Symbol_1377_1" data-name="Symbol 1377 – 1" transform="translate(-896.822 -397.375)">
    <g id="car_1_" transform="translate(899.33 399.875)">
      <g id="auto_2_" transform="translate(0 0)">
        <path id="Path_7026" data-name="Path 7026" class="cls-1" d="M118.658,54.012V48.1a18.805,18.805,0,0,0-1.427-7.34l-2.039-5.3h8.971a2.151,2.151,0,0,0,2.039-2.447l-1.631-6.524a3.929,3.929,0,0,0-3.874-3.058h-9.379l-7.748-15.7A12.326,12.326,0,0,0,92.56,1h-57.7a12.326,12.326,0,0,0-11.01,6.728L16.1,23.428H6.518a3.929,3.929,0,0,0-3.874,3.058L1.013,33.215a2.151,2.151,0,0,0,2.039,2.447h8.971l-2.039,5.3A21.37,21.37,0,0,0,8.557,48.3V68.284a25.1,25.1,0,0,0,.408,4.078L10.6,80.11V92.751a1.926,1.926,0,0,0,2.039,2.039H33.024a1.926,1.926,0,0,0,2.039-2.039V82.556H26.907" transform="translate(-0.987 -1)"/>
        <line id="Line_1189" data-name="Line 1189" class="cls-1" x2="28.545" transform="translate(32.037 81.556)"/>
        <path id="Path_7027" data-name="Path 7027" class="cls-1" d="M10.7,29.909H27.827L24.768,24.2" transform="translate(9.103 23.103)"/>
        <line id="Line_1190" data-name="Line 1190" class="cls-1" x2="29.811" transform="translate(46.309 67.284)"/>
        <line id="Line_1191" data-name="Line 1191" class="cls-1" x2="63.206" transform="translate(32.037 28.545)"/>
        <path id="Path_7032" data-name="Path 7032" class="cls-1" d="M10.7,29.909H27.827L24.768,24.2" transform="translate(9.103 23.103)"/>
        <path id="Path_7033" data-name="Path 7033" class="cls-1" d="M10.7,29.909H27.827L24.768,24.2" transform="translate(9.103 23.103)"/>
        <path id="Path_7034" data-name="Path 7034" class="cls-1" d="M10.7,32.112H27.827" transform="translate(76.205 20.899)"/>
      </g>
    </g>
    <g id="Symbol_1045_1" data-name="Symbol 1045 – 1" transform="translate(2075.432 -13433.093)">
      <path id="Path_6195" data-name="Path 6195" class="cls-2" d="M96.213,75.971a20.8,20.8,0,0,0,.642-6.42h0a20.267,20.267,0,0,0-6.741-13.483,19.667,19.667,0,0,0-13.8-4.815c-3.852.321-6.42,0-8.025-1.605L42.6,27.819c-1.926-1.605-2.247-3.852-2.568-7.7A18.186,18.186,0,0,0,33.293,7.273,18.7,18.7,0,0,0,13.069,3.742a3.288,3.288,0,0,0-1.605,1.926,2.709,2.709,0,0,0,.642,2.247L22.7,17.225v.321L22.058,23l-5.778,1.926h0L5.686,15.62a2.128,2.128,0,0,0-2.247-.642A2.894,2.894,0,0,0,1.513,16.9,19.515,19.515,0,0,0,1.192,23,20.267,20.267,0,0,0,7.933,36.486,18.784,18.784,0,0,0,20.774,41.3h2.889c2.568,0,4.494.321,6.1,1.605l25.36,22.15c1.926,1.605,2.247,3.852,2.568,7.7A18.186,18.186,0,0,0,64.432,85.6a19.919,19.919,0,0,0,20.545,3.21,3.288,3.288,0,0,0,1.605-1.926,4.64,4.64,0,0,0-.642-2.247L74.7,75.65v-.321l.963-5.778,5.778-1.926h0l10.594,9.31a3.056,3.056,0,0,0,2.247.642A2.035,2.035,0,0,0,96.213,75.971ZM83.372,63.452a1.977,1.977,0,0,0-2.247-.321L72.779,65.7c-.963.321-1.284.963-1.605,1.926l-1.605,8.668v.642a1.765,1.765,0,0,0,.963,1.605l8.346,7.383H77.273a14.823,14.823,0,0,1-9.631-3.531,16.755,16.755,0,0,1-5.136-9.631c-.321-5.136-1.284-8.346-4.173-10.915L32.972,39.7c-2.889-2.568-6.42-2.889-11.557-2.889h-.642a14.823,14.823,0,0,1-9.631-3.531A15.139,15.139,0,0,1,6.007,23v-.642l8.346,7.383a1.977,1.977,0,0,0,2.247.321l8.346-2.889a3.288,3.288,0,0,0,1.605-1.926l1.605-8.668a1.985,1.985,0,0,0-.642-2.247L19.169,6.952h.642A14.665,14.665,0,0,1,30.4,10.484a16.755,16.755,0,0,1,5.136,9.631c.321,5.136,1.284,8.346,4.173,10.915l25.36,22.15c2.889,2.568,6.42,2.889,11.557,2.889A13.486,13.486,0,0,1,86.9,59.6a15.1,15.1,0,0,1,5.136,9.952v.642Z" transform="translate(-1001.809 13887.937) rotate(113)"/>
    </g>
  </g>
</svg>
