<svg xmlns="http://www.w3.org/2000/svg" viewBox="0 0 142.834 144.413">
  <defs>
    <style>
      .cls-1 {
        fill: none;
        stroke: #f16322;
        stroke-linecap: round;
        stroke-linejoin: round;
        stroke-miterlimit: 10;
        stroke-width: 5px;
      }
    </style>
  </defs>
  <g id="car_1_" transform="translate(-1273.885 -397.375)">
    <g id="auto_2_" transform="translate(1276.393 399.875)">
      <path id="Path_7026" data-name="Path 7026" class="cls-1" d="M118.658,54.012V48.1a18.805,18.805,0,0,0-1.427-7.34l-2.039-5.3h8.971a2.151,2.151,0,0,0,2.039-2.447l-1.631-6.524a3.929,3.929,0,0,0-3.874-3.058h-9.379l-7.748-15.7A12.326,12.326,0,0,0,92.56,1h-57.7a12.326,12.326,0,0,0-11.01,6.728L16.1,23.428H6.518a3.929,3.929,0,0,0-3.874,3.058L1.013,33.215a2.151,2.151,0,0,0,2.039,2.447h8.971l-2.039,5.3A21.37,21.37,0,0,0,8.557,48.3V68.284a25.1,25.1,0,0,0,.408,4.078L10.6,80.11V92.751a1.926,1.926,0,0,0,2.039,2.039H33.024a1.926,1.926,0,0,0,2.039-2.039V82.556H26.907" transform="translate(-0.987 -1)"/>
      <line id="Line_1189" data-name="Line 1189" class="cls-1" x2="28.545" transform="translate(32.037 81.556)"/>
      <path id="Path_7027" data-name="Path 7027" class="cls-1" d="M10.7,29.909H27.827L24.768,24.2" transform="translate(9.103 23.103)"/>
      <line id="Line_1190" data-name="Line 1190" class="cls-1" x2="14.272" transform="translate(46.309 67.284)"/>
      <line id="Line_1191" data-name="Line 1191" class="cls-1" x2="63.206" transform="translate(32.037 28.545)"/>
    </g>
    <path id="_x3C_Trazado_x3E__1_" class="cls-1" d="M63.322,23A62.508,62.508,0,0,1,30.7,32.991V61.535A34.526,34.526,0,0,0,43.545,88.449l19.777,16.107L83.1,88.449A34.526,34.526,0,0,0,95.945,61.535V32.991A63.441,63.441,0,0,1,63.322,23Z" transform="translate(1318.274 434.731)"/>
  </g>
</svg>
